module go_study

go 1.18

require (
	github.com/go-vgo/robotgo v0.100.10
	golang.org/x/crypto v0.13.0
)

require (
	github.com/StackExchange/wmi v1.2.1 // indirect
	github.com/go-ole/go-ole v1.2.6 // indirect
	github.com/goware/modvendor v0.5.0 // indirect
	github.com/lxn/win v0.0.0-20210218163916-a377121e959e // indirect
	github.com/mattn/go-zglob v0.0.4 // indirect
	github.com/otiai10/gosseract v2.2.1+incompatible // indirect
	github.com/robotn/gohook v0.40.0 // indirect
	github.com/robotn/xgb v0.0.0-20190912153532-2cb92d044934 // indirect
	github.com/robotn/xgbutil v0.0.0-20190912154524-c861d6f87770 // indirect
	github.com/shirou/gopsutil v3.21.10+incompatible // indirect
	github.com/tklauser/go-sysconf v0.3.9 // indirect
	github.com/tklauser/numcpus v0.3.0 // indirect
	github.com/vcaesar/gops v0.21.3 // indirect
	github.com/vcaesar/imgo v0.30.0 // indirect
	github.com/vcaesar/keycode v0.10.0 // indirect
	github.com/vcaesar/tt v0.20.0 // indirect
	github.com/wasmerio/wasmer-go v1.0.4 // indirect
	golang.org/x/image v0.0.0-20211028202545-6944b10bf410 // indirect
	golang.org/x/sys v0.12.0 // indirect
)
